name,address,purchase_price,monthly_price,room,living_space,provider_name,provider_phone_no,amenities,property_details,cost_details,building_details,location_info
Wohnen am Puls der Zeit - Mitten in Mitte an den Hackeschen Höfen,"Alte Schönhauser 34,
10119 Berlin, Mitte (Mitte)",439.900 €,1.040 €,2,"51,3 m²",Herr Christian Backs,030 45198031,"Einbauküche, Keller","Typ: Maisonette, Etage: 4 von 4, Wohnfläche ca.: 51,3 m², Nutzfläche ca.: 54 m², Bezugsfrei ab: sofort, Zimmer: 2, Schlafzimmer: 1, Badezimmer: 1","Kaufpreis: 439.900 €, Hausgeld: 180 €, Provision für Käufer: 4,76 % incl. MWSt., Immobilienwert: Kostenfreie Wertermittlung als KäuferPlus Nutzer","Baujahr: 1905, Modernisierung/ Sanierung: zuletzt 2004, Objektzustand: Saniert, Heizungsart: Zentralheizung, Wesentliche Energieträger: Gas, Energieausweis: liegt vor, Energie­ausweistyp: Bedarfsausweis, Endenergiebedarf: 97,4 kWh/(m²*a)","Bestlage in Mitte jeweils ca. 200 m zu den Hackeschen Höfen, dem Monbijoupark und dem Alexanderplatz, sehr beliebtes Wohnviertel mit Altberliner - Flair im absoluten Zentrum, Bestlage im Sanierungsgebiet Zentrum - Scheunenviertel!!. Beste Verkehrsanbindung, - Straßenbahn, U-Bahn, S- Bahn etc. alles direkt vor der Tür. Absolut ruhig - da im 4.OG zum Innenhof!
ABSOLUT BESTE INNENSTADTLAGE - ZENTRALER GEHT ES NICHT! LAGEN WIE DIESE SIND NORMALERWEISE NICHT MEHR ZU FINDEN
weiterlesen…"
Charmante Dachgeschosswohnung mit großzügiger Terrasse,"10117 Berlin / Mitte, Mitte (Mitte)
Die vollständige Adresse der Immobilie erhalten Sie vom Anbieter.",997.000 €,2.414 €,4,"131,79 m²",Firma DAHLER & COMPANY Berlin GmbH & Co. KG,030 23256280,"Online-Besichtigung möglich, Personenaufzug, Balkon/ Terrasse, Garten/ -mitbenutzung, Gäste-WC, Einbauküche, Keller","Typ: Dachgeschoss, Etage: 5 von 5, Wohnfläche ca.: 131,79 m², Zimmer: 4, Schlafzimmer: 3, Badezimmer: 1","Kaufpreis: 997.000 €, Hausgeld: 470 €, Provision für Käufer: 6,96 % inkl. gesetzlicher MwSt. bezogen auf den Kaufpreis, Immobilienwert: Kostenfreie Wertermittlung als KäuferPlus Nutzer","Baujahr: 1883, Objektzustand: Saniert, Ausstattung: Gehobene Qualität, Heizungsart: Zentralheizung, Wesentliche Energieträger: Gas, Energieausweis: liegt vor, Energie­ausweistyp: Verbrauchsausweis, End­energie­verbrauch: 117 kWh/(m²*a), Energie­effizienz­klasse: D","Wer in Mitte wohnt, wird unvermeidlich zu einem Teil der Metropole Berlin mit ihren Kiezen, Shoppingmeilen, Museen, Restaurants, Parkanlagen und dem Diplomatenviertel. In Mitte leben bedeutet ständige Veränderung und steter Wandel inmitten historischer Orte wie der Berliner Mauer und dem Roten Rathaus. Die nach dem Mauerfall im Jahre 1989 erblühte Musik-, Kunst-, Hoch- und Subkulturszene hat mittlerweile Künstler aus aller Welt angezogen, die nun neben Regierungsgebäuden, Botschaften und fantastischen Sternerestaurants ein innovatives, kreatives Miteinander leben.

Flanieren Unter den Linden oder am Gendarmenmarkt, Berlins schönstem Platz, Shoppen am Alexander- und am Potsdamer Platz, für Liebhaber aber auch der Besuch des Fernsehturms, der Spielbank, des Alten Museums oder der Nationalgalerie, um neben dem Brandenburger Tor und dem Bode-Museum nur einige weitere Hotspots zu nennen, machen das Wohnen in Mitte zu einem im wahrsten Sinne des Wortes unendlichen Erlebnis – ob in einem luxuriösen und modernen Neubau oder in einem energetisch aufwendig sanierten Altbau aus der Gründerzeit.   

Für wahre Entdecker hält die zwischen dem Rosa-Luxemburg-Platz und der nördlichen Friedrichstraße gelegene Spandauer Vorstadt mit dem Hackeschen Markt als Eingangstor und dem Scheunenviertel viele Überraschungen bereit, für ihre Studierenden die Humboldt-Universität und für Wissbegierige und Leseratten die Staatsbibliothek mit fast 10 Millionen Büchern zum Ausleihen.
weiterlesen…"
Szene-Hotspot Alte Seifenfabrik in Berlin-Mitte: Luxuriöse Designerwohnung direkt an der Spree,"10179 Berlin, Mitte (Mitte)
Die vollständige Adresse der Immobilie erhalten Sie vom Anbieter.",850.000 €,2.062 €,3,"107,27 m²",Herr Tibor Taylor,030 58844781,"Personenaufzug, Balkon/ Terrasse, Einbauküche","Typ: Etagenwohnung, Etage: 3, Wohnfläche ca.: 107,27 m², Bezugsfrei ab: nach Vereinbarung, Zimmer: 3, Schlafzimmer: 2, Badezimmer: 1","Kaufpreis: 850.000 €, Hausgeld: 333,17 €, Provision für Käufer: 7,14 %, Immobilienwert: Kostenfreie Wertermittlung als KäuferPlus Nutzer","Baujahr: 2016, Objektzustand: Neuwertig, Ausstattung: Luxus, Heizungsart: Fußbodenheizung, Wesentliche Energieträger: Fernwärme, Energieausweis: liegt vor, Energie­ausweistyp: Bedarfsausweis, Endenergiebedarf: 75 kWh/(m²*a), Energie­effizienz­klasse: B","Die ehemalige Seifenfabrik ist Teil der historischen Luisenstadt und nur wenige Meter entfernt vom südlichen Spreeufer. Die direkte Umgebung ist geprägt von innovativem Gewerbe, Bars, Restaurants, Clubs und Kunstgalerien. Kurzum: Die gesamte urbane Vielfalt liegt vor der Haustür. Aber auch die für den täglichen Bedarf notwendige Infrastruktur ist voll entwickelt. Supermarkt, Kita und Schulen sind schnell erreicht. Die ungewöhnlich zentrale Lage bietet selbstverständlich sowohl über Bahnhöfe wie auch Hauptverkehrsstraßen eine hervorragende Verkehrsanbindung. So wird zum Beispiel der Flughafen BER in nur 30 Auto-Minuten erreicht.
weiterlesen…"
Ideal für Selbstnutzer: Altbauwohnung in Top-Lage in Mitte,"Torstraße 225C,
10117 Berlin, Mitte (Mitte)",310.000 €,659 €,1,"41,23 m²",Herr Dirk Höppner,030 8871817503,"Personenaufzug, Balkon/ Terrasse, Keller, Provisionsfrei","Typ: Etagenwohnung, Etage: 2 von 5, Wohnfläche ca.: 41,23 m², Bezugsfrei ab: 31.08.2020, Zimmer: 1","Kaufpreis: 310.000 €, Hausgeld: 130,30 €, Provision für Käufer: Nein, Immobilienwert: Kostenfreie Wertermittlung als KäuferPlus Nutzer","Baujahr: 1900, Objektzustand: Erstbezug nach Sanierung, Heizungsart: Zentralheizung, Energieausweis: liegt vor, Energie­ausweistyp: Verbrauchsausweis, End­energie­verbrauch: 119,9 kWh/(m²*a), Energie­effizienz­klasse: D","Wie der Name ‚Berlin-Mitte‘ verspricht: Hier lebt man mitten im Herzen der Stadt! Mitte setzt sich aus einer Vielzahl an lebendigen Kiezen mit eigenem Charakter zusammen. Die Torstraße liegt in einem der reizvollsten Quartiere – der Spandauer Vorstadt mit dem an kulturhistorischen Schätzen reichen Scheunenviertel.

Wohnen und Leben in der Torstraße bedeutet, alle Annehmlichkeiten des urbanen Lebens der Metropole Berlin direkt vor der Haustür zu haben. Hier bewegt man sich zwischen kulinarischer und kultureller Vielfalt. In südlicher Richtung pulsiert das Leben rund um die Friedrichstraße mit ihrer international renommierten Bühnenlandschaft vom Deutschen Theater über das Berliner Ensemble hin zum Friedrichstadt-Palast. Die nahegelegene Spree lädt zu Ausflügen mit dem Schiff durch die historische Mitte ein.

Die nur etwa einen Kilometer entfernte Museumsinsel gehört zu den kulturellen Höhepunkten der Stadt, die sowohl Touristen als auch Einheimische immer wieder in ihren Bann zieht. Eine besondere Atmosphäre besonders in den Sommermonaten versprüht der angrenzende Monbijoupark. Die Strandbar an der Uferpromenade lädt unter freiem Himmel zum Tangotanzen ein, die Märchenhütte bietet besondere Interpretationen der Grimm’schen Märchen und im Kinderbad können sich die Kleinen genüsslich die Zeit vertreiben.

Design- und Kunstliebhaber kommen im ehemaligen Scheunenviertel zwischen Linienstraße, Weinmeisterstraße und rund um den Hackeschen Markt auf ihre Kosten. Galerien und exklusive Shops sind eine Oase mit besonderem Charme für Flaneure. So vielfältig sich der Kiez am Tag zeigt, so lebendig geht auch das Nachtleben zu. Cafés, Bars und Restaurants jeglicher Couleur lassen das Herz von Berlinern und Gästen gleichermaßen höherschlagen und spiegeln die besondere Atmosphäre der beliebten Metropole wider.
weiterlesen…"
Ideal für Selbstnutzer: Altbauwohnung in nachgefragter Lage in Mitte,"Torstraße 225E,
10117 Berlin, Mitte (Mitte)",390.000 €,815 €,2,"58,49 m²",Herr Dirk Höppner,030 8871817503,"Personenaufzug, Keller, Provisionsfrei","Typ: Erdgeschosswohnung, Etage: 0 von 5, Wohnfläche ca.: 58,49 m², Bezugsfrei ab: 31.08.3030, Zimmer: 2, Schlafzimmer: 1","Kaufpreis: 390.000 €, Hausgeld: 173,70 €, Provision für Käufer: Nein, Immobilienwert: Kostenfreie Wertermittlung als KäuferPlus Nutzer","Baujahr: 1900, Objektzustand: Erstbezug nach Sanierung, Heizungsart: Zentralheizung, Energieausweis: liegt vor, Energie­ausweistyp: Verbrauchsausweis, End­energie­verbrauch: 149,2 kWh/(m²*a), Energie­effizienz­klasse: E","Wie der Name ‚Berlin-Mitte‘ verspricht: Hier lebt man mitten im Herzen der Stadt! Mitte setzt sich aus einer Vielzahl an lebendigen Kiezen mit eigenem Charakter zusammen. Die Torstraße liegt in einem der reizvollsten Quartiere – der Spandauer Vorstadt mit dem an kulturhistorischen Schätzen reichen Scheunenviertel.

Wohnen und Leben in der Torstraße bedeutet, alle Annehmlichkeiten des urbanen Lebens der Metropole Berlin direkt vor der Haustür zu haben. Hier bewegt man sich zwischen kulinarischer und kultureller Vielfalt. In südlicher Richtung pulsiert das Leben rund um die Friedrichstraße mit ihrer international renommierten Bühnenlandschaft vom Deutschen Theater über das Berliner Ensemble hin zum Friedrichstadt-Palast. Die nahegelegene Spree lädt zu Ausflügen mit dem Schiff durch die historische Mitte ein.

Die nur etwa einen Kilometer entfernte Museumsinsel gehört zu den kulturellen Höhepunkten der Stadt, die sowohl Touristen als auch Einheimische immer wieder in ihren Bann zieht. Eine besondere Atmosphäre besonders in den Sommermonaten versprüht der angrenzende Monbijoupark. Die Strandbar an der Uferpromenade lädt unter freiem Himmel zum Tangotanzen ein, die Märchenhütte bietet besondere Interpretationen der Grimm’schen Märchen und im Kinderbad können sich die Kleinen genüsslich die Zeit vertreiben.

Design- und Kunstliebhaber kommen im ehemaligen Scheunenviertel zwischen Linienstraße, Weinmeisterstraße und rund um den Hackeschen Markt auf ihre Kosten. Galerien und exklusive Shops sind eine Oase mit besonderem Charme für Flaneure. So vielfältig sich der Kiez am Tag zeigt, so lebendig geht auch das Nachtleben zu. Cafés, Bars und Restaurants jeglicher Couleur lassen das Herz von Berlinern und Gästen gleichermaßen höherschlagen und spiegeln die besondere Atmosphäre der beliebten Metropole wider.
weiterlesen…"
MODERNES PENTHOUSE MIT XXL TERRASSE IN BERLIN -MITTE,"10115 Berlin, Mitte (Mitte)
Die vollständige Adresse der Immobilie erhalten Sie vom Anbieter.",2.550.000 €,6.186 €,4,213 m²,Herr Peter Rabitz,0172 7999170,"Personenaufzug, Balkon/ Terrasse, Gäste-WC, Keller, Stufenloser Zugang","Typ: Penthouse, Etage: 7 von 7, Wohnfläche ca.: 213 m², Nutzfläche ca.: 118 m², Zimmer: 4, Schlafzimmer: 3, Badezimmer: 3, Garage/ Stellplatz: 1 Tiefgaragen-Stellplatz","Kaufpreis: 2.550.000 €, Hausgeld: 800 €, Provision für Käufer: 7,14%","Baujahr: 2016, Objektzustand: Erstbezug, Ausstattung: Gehobene Qualität, Heizungsart: Fußbodenheizung, Energieausweis: liegt vor, Energie­ausweistyp: Bedarfsausweis, Endenergiebedarf: 66 kWh/(m²*a), Energie­effizienz­klasse: A","Die Chausseestraße ist eine der bekanntesten Straßen Berlins und in der Verlängerung der Friedrichstrasse auch eine der Ausfallstraßen die Berlin-Mitte mit dem Norden der Stadt verbindet. Die Chausseestraße durchlebte in den letzten 10 Jahren viele, die Straße prägende Veränderungen. Diverse Neubauprojekte wurden in den letzten Jahren in der Chausseestraße errichtet. Vorteile der Lage sind nach wie vor die Nähe zur historischen wie auch touristischen Mitte Berlins, wie auch die Lage zum in nur wenigen Minuten zu erreichenden Hauptbahnhof. Der derzeitig noch offene Flughafen Tegel ist in nur 20 Minuten zu erreichen. 
Mit den vielen Veränderungen in der Straße und den diversen Hotelneubauten, veränderte sich auch die unmittelbare Umgebung des zum Verkauf stehenden Penthouse. Zahlreiche Restaurants, Cafe’s und Bars befinden sich in unmittelbarer Nähe, darunter auch Institutionen wie das kürzlich mit 3 Guide Michelin Sternen ausgezeichnete Restaurant Rutz, nur 400m entfernt. 
Ebenfalls ist es nur ein kurzer Spaziergang zu touristischen Attraktionen wie der Museumsinsel, dem Brandenburger Tor, dem Hackeschen Markt oder dem Fernsehturm. Das Scheunenviertel, in dem sich das Penthouse befindet, ist allseits beliebt und lädt zum Bummeln und Stöbern in unzähligen Galerien und Shops ein. Nur 100m entfernt befinden sich die U-Bahnstationen Schwarzkopfstraße und Naturkundemuseum der Linie U6.
weiterlesen…"
Exklusives Wohnen am Gendarmenmarkt - Toplage in Berlin!!,"10117 Berlin, Mitte (Mitte)
Die vollständige Adresse der Immobilie erhalten Sie vom Anbieter.",439.000 €,1.063 €,1,"41,79 m²",Herr Altan Toraman,030 4401289155,"Personenaufzug, Keller","Typ: Etagenwohnung, Etage: 6, Wohnfläche ca.: 41,79 m², Zimmer: 1, Badezimmer: 1, Garage/ Stellplatz: 1 Stellplatz","Kaufpreis: 439.000 €, Hausgeld: 256,91 €, Provision für Käufer: 6,96% inkl. 16% MwSt., Immobilienwert: Kostenfreie Wertermittlung als KäuferPlus Nutzer","Baujahr: 1999, Heizungsart: Fernwärme, Wesentliche Energieträger: Fernwärme, Energieausweis: liegt vor, Energie­ausweistyp: Verbrauchsausweis, End­energie­verbrauch: 53 kWh/(m²*a), Energie­effizienz­klasse: B","Der Ortsteil Mitte umfasst einen großen Teil der historischen Stadtteile und des Kerngebiets des alten Berlins. Hier liegt das östliche Zentrum der deutschen Hauptstadt mit den ehemaligen Stadtkernen von Alt-Berlin und Cölln, dem Brandenburger Tor, der Straße Unter den Linden, der Humboldt-Universität, der Museumsinsel und dem Fernsehturm. In Mitte befinden sich zahlreiche Einrichtungen des Bundes, der Berliner Senat im Roten Rathaus und das Abgeordnetenhaus von Berlin im Preußischen Landtag sowie zahlreiche Botschaften. Bis zur Verwaltungsreform im Jahr 2001 war der Ortsteil ein eigener Bezirk.  Der Ortstteil Mitte hat 93.144 Einwohner uns ist damit der zweitbevölkerungsreichste Ortsteil des Bezirks.

Als sichtbare Landmarke stellt der Berliner Fernsehturm in der Nähe des Alexanderplatzes das Zentrum von Berlin-Mitte dar, an dessen Fuß das Rote Rathaus steht. Beginnend mit der Schlossbrücke befinden sich an der Prachtstraße Unter den Linden zahlreiche Gebäude: Das Kronprinzenpalais, die Staatsoper, die Neue Wache und die Humboldt-Universität. Das Brandenburger Tor bildet am Pariser Platz die Grenze zum Großen Tiergarten. Auf der Museumsinsel befindet sich die historische Keimzelle der Berliner Museumslandschaft und mit folgenden Museen: Alte Nationalgalerie, Pergamonmuseum, Altes Museum, Bode-Museum und Neues Museum. Weitere bedeutende Museen in Mitte sind das Deutsche Historische Museum im Zeughaus, das Museum für Naturkunde und das Märkische Museum. Als bedeutende Bauten stehen am Gendarmenmarkt der Deutsche und der Französische Dom. Im Bereich der Friedrichstraße und der Oranienburger Straße finden sich der Friedrichstadt-Palast und die Neue Synagoge sowie die Hackeschen Höfe.

Als Sakralbauten sind folgende bekannt: Berliner Dom, Evangelisch-Lutherische Kirche Berlin, Französische Friedrichstadtkirche, Friedrichswerdersche Kirche (heute: Schinkelmuseum), Nikolaikirche, Sankt-Hedwigs-Kathedrale, Marienkirche, Sankt-Michael-Kirche, Sophienkirche, Parochialkirche, Französischer Dom, Deutscher Dom (heute: Museum der Geschichte der Demokratie in Deutschland), Kapelle der Versöhnung und die Zionskirche. Folgende Theater sind in Mitte ansässig: das Berliner Ensemble, das Deutsche Theater, die Volksbühne, die Komische Oper, das Konzerthaus, der Friedrichstadt-Palast, das Varietétheater Chamäleon in den Hackeschen Höfen, das Kabarett Die Distel sowie das Maxim-Gorki-Theater/Sing-Akademie, das Theaterhaus Berlin Mitte als zentraler Produktions- und Kommunikationsort für freie darstellende Künste und das Kleine Theater Berlin-Mitte. Überregionales Medien- und Theaterfestival ist das jährlich stattfindende Neuropolis.

Darüber hinaus besitzt Mitte weitere erwähnenswerte Bauten und Anlagen: Das St.-Hedwig-Krankenhaus von 1846, die Charité, den Dorotheenstädtischen, den Invalidenfriedhof und den Jüdischen Friedhof, das Nikolaiviertel sowie das Scheunenviertel.

In Ost-West-Richtung verläuft die 1882 fertiggestellte Berliner Stadtbahn auf gemauerten Viaduktbögen und Brücken durch die Stadtmitte. Regionalbahnhöfe sind Alexanderplatz und Friedrichstraße. Bis 1990 war der Bahnhof Friedrichstraße Grenzbahnhof zwischen Ost- und West-Berlin. Die Züge aus dem Ost- und Westnetz endeten auf getrennten Bahnsteigen, alle Fernzüge in die Bundesrepublik hielten hier und wurden kontrolliert. Die Züge der unterirdischen Nord-Süd-S-Bahn hielten am Tiefbahnsteig zum Umstieg für Fahrgäste aus West-Berlin zur U-Bahn-Linie U6 und zur S-Bahn Richtung Westen. Für Ost-Berliner und DDR-Bürger ohne Visum war dieser Bahnsteig und auch der U-Bahnhof nicht erreichbar. Seit der politischen Wende fährt die S-Bahn wieder durchgehend.
weiterlesen…"
BESTLAGE AM ROSENTHALER PLATZ: ATTRAKTIVE KAPITALANLAGE MIT ANTEILEN AM DACHROHLING!,"10119 Berlin, Mitte (Mitte)
Die vollständige Adresse der Immobilie erhalten Sie vom Anbieter.",270.000 €,663 €,2,"60,05 m²",Herr Luc Jost,030 32773476,"Online-Besichtigung möglich, Keller, Vermietet","Typ: Etagenwohnung, Etage: 1 von 4, Wohnfläche ca.: 60,05 m², Bezugsfrei ab: sofort, Zimmer: 2, Badezimmer: 1","Kaufpreis: 270.000 €, Hausgeld: 166,29 €, Provision für Käufer: 7,14 %, Immobilienwert: Kostenfreie Wertermittlung als KäuferPlus Nutzer","Baujahr: 1897, Objektzustand: Gepflegt, Heizungsart: Gas-Heizung, Wesentliche Energieträger: Gas, Energieausweis: liegt vor, Energie­ausweistyp: Verbrauchsausweis, End­energie­verbrauch: 114,9 kWh/(m²*a), Energie­effizienz­klasse: D","- BESTLAGE, angrenzend an den Volkspark am Weinberg

- nur wenige Gehminuten vom Hackeschen Markt, der Torstraße oder dem Zionskirchplatz 

- optimale Verkehrsanbindung und Infrastruktur

- nur 100 m zum U-Bahnhof Rosenthaler Platz

- Tramhaltestelle vor der Tür

- Geschäfte aller Art sowie vielfältige Gastronomie in direkter Nachbarschaft

- Kita, Grund- und Oberschule zu Fuß erreichbar

- ca. 800 m zur Synagoge, ca. 1 km zur Museumsinsel oder zum Fernsehturm
weiterlesen…"
BT via Video-Chat vereinbaren: 80m² voller Potential & mit Top-Ausblick auf den Arkonaplatz,"Wolliner Str. 14,
10435 Berlin, Mitte (Mitte)",475.000 €,1.150 €,3,"79,65 m²",Tobias Bajtel,030 88774250,"Online-Besichtigung möglich, Balkon/ Terrasse","Etage: 1, Wohnfläche ca.: 79,65 m², Bezugsfrei ab: bezugsfrei, Zimmer: 3","Kaufpreis: 475.000 €, Hausgeld: 305,44 €, Provision für Käufer: 6,96% inkl. MwSt., Immobilienwert: Kostenfreie Wertermittlung als KäuferPlus Nutzer","Baujahr: 1949, Objektzustand: Gepflegt, Heizungsart: Gas-Heizung, Wesentliche Energieträger: Gas, Energie­ausweistyp: Verbrauchsausweis, Energie­ver­brauchs­kennwert: 110 kWh/(m²*a)","Kaum ein Bezirk veränderte sich in den letzten Jahren so sehr wie Berlin-Mitte: Wo schon immer revolutionierender Geist hinter renovierungsbedürftigen Altbaufassaden wirkte, ist heute ein Lebensraum für Berlins kreative Szene entstanden. Gastronomie reiht sich an Galerien, Bio trifft auf Bourgeoisie, Think-Tanks auf Denkmäler. Ebenfalls charakteristisch sind die wunderschönen Altbaustraßenzüge wie zum Beispiel rund um den Zionskirch- und den Arkonaplatz. Die Wolliner Straße verbindet beide Plätze, mündet in der Verkehrsachse Bernauer Straße und vereint die Vorteile von Mitte und dem angrenzenden Prenzlauer Berg. Hier geben sich Urbanität und Ruhe die Hand. Wenige Gehminuten entfernt liegt der Mauerpark; ebenfalls erwähnenswert ist der Volkspark am Weinbergsweg mit seinen Liegewiesen und umliegenden Cafés. Die familienfreundliche Infrastruktur mit zahlreichen Schulen und Kitas macht die Gegend ebenso für Groß und Klein attraktiv. Der U-Bahnhof Bernauer Straße sichert neben der Tram in der Kastanienallee ein schnelles Erreichen aller weiteren Stadtzentren. 
weiterlesen…"
IMMOBERLIN: Familienfreundliche Wohnung mit ruhiger Südterrasse & Garten,"10179 Berlin, Mitte (Mitte)
Die vollständige Adresse der Immobilie erhalten Sie vom Anbieter.",749.000 €,1.813 €,4,123 m²,. IMMOBERLIN.DE,030 8957220,"Personenaufzug, Balkon/ Terrasse, Garten/ -mitbenutzung, Gäste-WC, Einbauküche, Keller, Stufenloser Zugang","Typ: Etagenwohnung, Wohnfläche ca.: 123 m², Zimmer: 4, Garage/ Stellplatz: Tiefgaragen-Stellplatz","Kaufpreis: 749.000 €, Provision für Käufer: 6,96 % inklusive der gesetzlichen Mehrwertsteuer, Immobilienwert: Kostenfreie Wertermittlung als KäuferPlus Nutzer","Baujahr: 2013, Wesentliche Energieträger: Fernwärme, Energieausweis: liegt vor, Energie­ausweistyp: Bedarfsausweis, Endenergiebedarf: 59 kWh/(m²*a)",Location Not Found
Top-Zentral- Berlin-Mitte - Bezugsfreies Apartment am Alex - provisionsfrei,"Holzmarktstraße 75,
10179 Berlin, Mitte (Mitte)",199.500 €,447 €,1,"29,37 m²",Verkaufsteam,030 44353100,"Personenaufzug, Einbauküche, Provisionsfrei","Typ: Etagenwohnung, Etage: 8, Wohnfläche ca.: 29,37 m², Bezugsfrei ab: sofort, Zimmer: 1","Kaufpreis: 199.500 €, Hausgeld: 133 €, Provision für Käufer: Nein, Immobilienwert: Kostenfreie Wertermittlung als KäuferPlus Nutzer","Baujahr: 1971, Objektzustand: Gepflegt, Heizungsart: Zentralheizung, Wesentliche Energieträger: Fernwärme, Energie­ausweistyp: Verbrauchsausweis, Energie­ver­brauchs­kennwert: 91 kWh/(m²*a)","Die Holzmarktstraße liegt im Herzen Berlins im Ortsteil ""Mitte"" südöstlich des Alexanderplatzes an der Jannowitzbrücke und unmittelbar an der Spree, deren Uferwege zum Spazieren und Joggen einladen. Der Alexanderplatz - das neue Herz Berlins - ist in wenigen Fußminuten erreichbar. Der nahegelegene Fernsehturm ist das höchste begehbare Bauwerk Westeuropas. Auch das Rote Rathaus befindet sich nur einige hundert Meter weiter südlich. Sämtliche Sehenswürdigkeiten und zahlreiche kulturelle Attraktionen von internationalem Rang sind zu Fuß zu erreichen (Opernhäuser, Theater, Bibliotheken, Friedrichstadtpalast, Schauspielhaus, Museumsinsel etc.).
weiterlesen…"
Bezugsfreies 3-Zi-Appartement - zwischen Hackescher Markt und Alexanderplatz - provisionsfrei,"Rochstraße 9,
10178 Berlin, Mitte (Mitte)",399.000 €,833 €,3,"74,02 m²",Verkaufsteam,030 44353100,"Personenaufzug, Balkon/ Terrasse, Provisionsfrei","Typ: Etagenwohnung, Etage: 6 von 24, Wohnfläche ca.: 74,02 m², Bezugsfrei ab: sofort, Zimmer: 3","Kaufpreis: 399.000 €, Hausgeld: 231,55 €, Provision für Käufer: Nein, Immobilienwert: Kostenfreie Wertermittlung als KäuferPlus Nutzer","Baujahr: 1969, Objektzustand: Renovierungsbedürftig, Heizungsart: Zentralheizung, Wesentliche Energieträger: Fernwärme, Energie­ausweistyp: Verbrauchsausweis, End­energie­verbrauch: 103 kWh/(m²*a)","Zentraler als in der Rochstraße können Sie kaum wohnen:
Die ganze urbane Vielfalt breitet sich zu Ihren Füßen aus: Hackesche Höfe, Oranienburger Straße, Alexanderplatz, Unter den Linden sowie historische Schätze der Weltkultur, wie die Museumsinsel mit Bodemuseum und Pergamonmuseum, der Berliner Dom und das Deutsche Historische Museum.

Im Bezirk Mitte - verdichtet sich alles, was Berlin zur Hauptstadt macht - von Regierung und Parlament über Wissenschaft und Kultur bis zur Gastronomie. Kein Wunder, dass Mitte ein begehrtes Pflaster ist.  

Wer sich hier Immobilienbesitz sichert, investiert in einen Standort mit glänzenden Zukunftsperspektiven.

Der Verkauf des Objektes erfolgt provisionsfrei !
weiterlesen…"
PROVISIONSFREI! 3-Zimmer-Wohnung auf ca. 93 m² mit Loggia & gemeinschaftlicher Dachterrasse,"Voltairestraße 200,
10179 Berlin, Mitte (Mitte)",699.500 €,1.461 €,3,"93,11 m²",Verkaufsteam GRANDAIRE,030 44353130,"Personenaufzug, Balkon/ Terrasse, Gäste-WC, Keller, Provisionsfrei","Typ: Etagenwohnung, Etage: 6 von 20, Wohnfläche ca.: 93,11 m², Bezugsfrei ab: 31.10.2020, Zimmer: 3, Schlafzimmer: 2, Badezimmer: 1, Garage/ Stellplatz: 1 Tiefgaragen-Stellplatz","Kaufpreis: 699.500 €, Garage/ Stellplatz-Kaufpreis: 44.500 €, Provision für Käufer: Nein, Immobilienwert: Kostenfreie Wertermittlung als KäuferPlus Nutzer","Baujahr: 2016, Objektzustand: Erstbezug, Heizungsart: Fußbodenheizung, Wesentliche Energieträger: Fernwärme","IN DER MITTE ZU HAUSE

Das GRANDAIRE liegt nur wenige Meter von der historischen Mitte und den ältesten Vierteln Berlins entfernt. Die ruhige und idyllische Atmosphäre der benachbarten Quartiere stellt einen ruhigen Kontrapunkt zur lebendigen Berliner Mitte mit dem nördlich gelegenen Alexanderplatz und Scheunenviertel dar.

ALLES IN UNMITTELBARER NÄHE

Neben den historischen Wohnvierteln mit all ihren bedeutsamen Spuren der Stadtgeschichte Berlins und dem Alexanderplatz, liegen auch das Brandenburger Tor, das Regierungsviertel, die berühmte Flaniermeile Unter den Linden und die Friedrichstraße als eine der Schlagadern Berlins nicht weit vom Grandaire entfernt.

Die Philharmonie, die Museumsinsel und die grüne Lunge der Hauptstadt, der Große Tiergarten, sind von dem neuen Wohnensemble in der Voltairestraße bequem zu erreichen.
weiterlesen…"
GRANDAIRE - Erster neuer Wohnturm in Berlin-Mitte - provisionsfrei,"Voltairestraße 11,
10179 Berlin, Mitte (Mitte)",459.500 €,960 €,2,"54,4 m²",Verkaufsteam GRANDAIRE,030 44353130,"Personenaufzug, Balkon/ Terrasse, Keller, Provisionsfrei","Typ: Etagenwohnung, Etage: 13 von 20, Wohnfläche ca.: 54,4 m², Bezugsfrei ab: 31.10.2020, Zimmer: 2, Schlafzimmer: 1, Badezimmer: 1, Garage/ Stellplatz: 1 Tiefgaragen-Stellplatz, Internet: Verfügbarkeit prüfen","Kaufpreis: 459.500 €, Garage/ Stellplatz-Kaufpreis: 54.500 €, Provision für Käufer: Nein, Immobilienwert: Kostenfreie Wertermittlung als KäuferPlus Nutzer","Baujahr: 2020, Objektzustand: Erstbezug, Heizungsart: Fußbodenheizung, Wesentliche Energieträger: Fernwärme, Energie­ausweistyp: Bedarfsausweis, Endenergiebedarf: 50,5 kWh/(m²*a), Energie­effizienz­klasse: B",Location Not Found
IMMOBERLIN: Toplage & -Investment! Adrette vermietete Altbauwohnung,"10115 Berlin, Mitte (Mitte)
Die vollständige Adresse der Immobilie erhalten Sie vom Anbieter.",425.000 €,1.031 €,3,80 m²,. IMMOBERLIN.DE,030 8957220,"Keller, Vermietet","Typ: Etagenwohnung, Wohnfläche ca.: 80 m², Zimmer: 3","Kaufpreis: 425.000 €, Provision für Käufer: 7,14 % inklusive der gesetzlichen Mehrwertsteuer, Immobilienwert: Kostenfreie Wertermittlung als KäuferPlus Nutzer","Baujahr: 1904, Heizungsart: Zentralheizung, Wesentliche Energieträger: Erdgas leicht, Energieausweis: liegt vor, Energie­ausweistyp: Verbrauchsausweis, End­energie­verbrauch: 132 kWh/(m²*a), Energie­effizienz­klasse: E",Location Not Found
Rarität: Bezugsfreie 3 Zimmer Altbauwohnung in der Linienstrasse,"10115 Berlin, Mitte (Mitte)
Die vollständige Adresse der Immobilie erhalten Sie vom Anbieter.",699.000 €,1.695 €,3,80 m²,Herr Niels Schnatz,030 40633050,Einbauküche,"Typ: Etagenwohnung, Etage: 1, Wohnfläche ca.: 80 m², Zimmer: 3, Schlafzimmer: 2, Badezimmer: 1","Kaufpreis: 699.000 €, Provision für Käufer: 7,14%, Immobilienwert: Kostenfreie Wertermittlung als KäuferPlus Nutzer","Baujahr: 1845, Denkmalschutzobjekt: Ja, Energieausweis: laut Gesetz nicht erforderlich","Die Wohnung befindet sich in Berlin-Mitte, nahe zum Rosenthaler Platz und somit einen Katzensprung von Berlins Hotspots wie dem Hackeschen Markt, dem Alexanderplatz oder dem Mauerpark entfernt. In Berlin-Mitte finden Sie exklusive Restaurants wie das „To The Bone“, Bars wie das „Mikkeler“, sowie Galerien und Theater. Genießen Sie einen Abend in der „Volksbühne“ oder im „Babylon Berlin Kino“ und spüren Sie Berlins pulsierenden Atem. Mit dem Fahrrad oder zu Fuß erreichen Sie das Prenzlauer Berg und auch das berüchtigte  Zwischen Spätis, Büros und Second Hand Läden werden Sie Ihr Berlin entdecken!

Die Wohnung ist sehr gut an die öffentlichen Verkehrsmittel angebunden:

-Busbahnhof Tucholsky Straße (ca. 3 Gehminuten entfernt) 
-U Bahnhaltestelle Rosenthaler Platz (ca. 9 Gehminuten entfernt) 
-U Bahnhaltestelle Oranienburger Tor (ca. 6 Gehminuten entfernt) 
weiterlesen…"
3-Zimmer-Altbauwohnung in begehrter Lage zum Selbstbezug,"Torstraße 225B,
10117 Berlin, Mitte (Mitte)",740.000 €,1.546 €,3,"85,99 m²",Frau Birgit Ahrends,030 71817552,"Personenaufzug, Balkon/ Terrasse, Keller, Provisionsfrei","Typ: Etagenwohnung, Etage: 4 von 5, Wohnfläche ca.: 85,99 m², Bezugsfrei ab: 01.07.2022, Zimmer: 3, Schlafzimmer: 2","Kaufpreis: 740.000 €, Hausgeld: 262,86 €, Provision für Käufer: Nein, Immobilienwert: Kostenfreie Wertermittlung als KäuferPlus Nutzer","Baujahr: 1900, Objektzustand: Erstbezug nach Sanierung, Heizungsart: Zentralheizung, Energieausweis: liegt vor, Energie­ausweistyp: Verbrauchsausweis, End­energie­verbrauch: 211,8 kWh/(m²*a), Energie­effizienz­klasse: G","Wie der Name ‚Berlin-Mitte‘ verspricht: Hier lebt man mitten im Herzen der Stadt! Mitte setzt sich aus einer Vielzahl an lebendigen Kiezen mit eigenem Charakter zusammen. Die Torstraße liegt in einem der reizvollsten Quartiere – der Spandauer Vorstadt mit dem an kulturhistorischen Schätzen reichen Scheunenviertel.

Wohnen und Leben in der Torstraße bedeutet, alle Annehmlichkeiten des urbanen Lebens der Metropole Berlin direkt vor der Haustür zu haben. Hier bewegt man sich zwischen kulinarischer und kultureller Vielfalt. In südlicher Richtung pulsiert das Leben rund um die Friedrichstraße mit ihrer international renommierten Bühnenlandschaft vom Deutschen Theater über das Berliner Ensemble hin zum Friedrichstadt-Palast. Die nahegelegene Spree lädt zu Ausflügen mit dem Schiff durch die historische Mitte ein.

Die nur etwa einen Kilometer entfernte Museumsinsel gehört zu den kulturellen Höhepunkten der Stadt, die sowohl Touristen als auch Einheimische immer wieder in ihren Bann zieht. Eine besondere Atmosphäre besonders in den Sommermonaten versprüht der angrenzende Monbijoupark. Die Strandbar an der Uferpromenade lädt unter freiem Himmel zum Tangotanzen ein, die Märchenhütte bietet besondere Interpretationen der Grimm’schen Märchen und im Kinderbad können sich die Kleinen genüsslich die Zeit vertreiben.

Design- und Kunstliebhaber kommen im ehemaligen Scheunenviertel zwischen Linienstraße, Weinmeisterstraße und rund um den Hackeschen Markt auf ihre Kosten. Galerien und exklusive Shops sind eine Oase mit besonderem Charme für Flaneure. So vielfältig sich der Kiez am Tag zeigt, so lebendig geht auch das Nachtleben zu. Cafés, Bars und Restaurants jeglicher Couleur lassen das Herz von Berlinern und Gästen gleichermaßen höherschlagen und spiegeln die besondere Atmosphäre der beliebten Metropole wider.
weiterlesen…"
Kapitalanlage am Alex: vermietete 1 Zi-Wohnung - provisionsfrei,"Mollstraße 3,
10178 Berlin, Mitte (Mitte)",149.500 €,335 €,1,"33,38 m²",Herr von Thomas Münster,0172 1594594,"Personenaufzug, Keller, Vermietet, Provisionsfrei","Typ: Etagenwohnung, Wohnfläche ca.: 33,38 m², Zimmer: 1","Kaufpreis: 149.500 €, Hausgeld: 166,88 €, Provision für Käufer: Nein, Immobilienwert: Kostenfreie Wertermittlung als KäuferPlus Nutzer","Baujahr: 1966, Objektzustand: Saniert, Heizungsart: Zentralheizung, Wesentliche Energieträger: Fernwärme, Energie­ausweistyp: Verbrauchsausweis, End­energie­verbrauch: 99 kWh/(m²*a)","Alexanderplatz, der Nabel der City Ost! 
Der Berliner Alexanderplatz im Bezirk Mitte steht mit dem benachbarten Fernsehturm traditionell für den Mittelpunkt der City Ost. Hier kreuzen sich 6 U- und S-Bahnlinien, 13 Tram- und Buslinien sowie der Regionalexpress und bieten eine perfekte Verkehrsanbindung in die gesamte Bundeshauptstadt, zum Flughafen und zum Hauptbahnhof. 

Hervorragende Einkaufsmöglichkeiten, ein breites Kulturangebot und zahlreiche Sehenswürdigkeiten liegen in unmittelbarer Umgebung. Der Hackesche Markt und das Scheunenviertel, das UNESCO-Welterbe Museumsinsel und das Humboldtforum mit dem künftigen Berliner Stadtschloss, der Gendarmenmarkt mit dem Schauspielhaus, die Einkaufsmeile Friedrichstraße und der Boulevard Unter den Linden - all diese Highlights für Berlin-Besucher finden Sie fast vor Ihrer künftigen Haustür.
weiterlesen…"
