date,time,timezone,channel,team1,team2
"Thursday, September 10th",8:20 PM,EDT,NBC,Texans,Chiefs
"Sunday, September 13th",1:00 PM,EDT,FOX,Eagles,Redskins
"Sunday, September 13th",1:00 PM,EDT,CBS,Dolphins,Patriots
"Sunday, September 13th",1:00 PM,EDT,FOX,Packers,Vikings
"Sunday, September 13th",1:00 PM,EDT,CBS,Colts,Jaguars
"Sunday, September 13th",1:00 PM,EDT,FOX,Bears,Lions
"Sunday, September 13th",1:00 PM,EDT,CBS,Raiders,Panthers
"Sunday, September 13th",1:00 PM,EDT,CBS,Jets,Bills
"Sunday, September 13th",1:00 PM,EDT,CBS,Browns,Ravens
"Sunday, September 13th",1:00 PM,EDT,FOX,Seahawks,Falcons
"Sunday, September 13th",4:05 PM,EDT,CBS,Chargers,Bengals
"Sunday, September 13th",4:25 PM,EDT,FOX,Cardinals,49ers
"Sunday, September 13th",4:25 PM,EDT,FOX,Buccaneers,Saints
"Sunday, September 13th",8:20 PM,EDT,NBC,Cowboys,Rams
"Monday, September 14th",7:15 PM,EDT,ESPN,Steelers,Giants
"Monday, September 14th",10:10 PM,EDT,ESPN,Titans,Broncos
